// Jest Snapshot v1, https://goo.gl/fbAQLP

exports[`Results - snapshots should render correctly no results 1`] = `
<WrapperComponent>
  <div
    className="noResults"
  >
    <Illustration
      name="NoResults"
      size="medium"
    />
    <div
      className="noResultsText"
      data-test="e2e-no-res"
    >
      No results for value:
       
      <span
        className="textBold"
      >
        "
        123
        "
      </span>
    </div>
  </div>
</WrapperComponent>
`;

exports[`Results - snapshots should render correctly placeholders 1`] = `
<Results
  loading={true}
>
  <WrapperComponent>
    <div
      className="content"
    >
      <PlaceholderComponent>
        <div
          className="placeholders"
        >
          <div
            className="placeholder"
            key="0__key"
          />
          <div
            className="placeholder"
            key="1__key"
          />
          <div
            className="placeholder"
            key="2__key"
          />
          <div
            className="placeholder"
            key="3__key"
          />
          <div
            className="placeholder"
            key="4__key"
          />
          <div
            className="placeholder"
            key="5__key"
          />
          <div
            className="placeholder"
            key="6__key"
          />
          <div
            className="placeholder"
            key="7__key"
          />
          <div
            className="placeholder"
            key="8__key"
          />
          <div
            className="placeholder"
            key="9__key"
          />
          <div
            className="placeholder"
            key="10__key"
          />
          <div
            className="placeholder"
            key="11__key"
          />
        </div>
      </PlaceholderComponent>
    </div>
  </WrapperComponent>
</Results>
`;

exports[`Results - snapshots should render correctly results 1`] = `
<div
  class="content"
>
  <div>
    <div
      class="count"
    >
      Count: 
      <span
        class="textBold"
      >
        3
      </span>
    </div>
    <div
      class="list"
    >
      <ul
        class="List__StyledList-iwilat-0 iSFBOy"
      >
        <li
          class="ListItem__Item-sc-1vswvev-0 kAKwfM"
          data-test="e2e-result-value__hi"
        >
          <div
            class="ListItem__IconContainer-sc-1vswvev-1 dkYzlp"
            type="primary"
          >
            <svg
              class="Icon__StyledIcon-sc-1pnzn3g-0 ctFCqo"
              preserveAspectRatio="xMidYMid meet"
              viewBox="0 0 24 24"
            >
              <path
                d="M12 7c-2.76 0-5 2.24-5 5s2.24 5 5 5 5-2.24 5-5-2.24-5-5-5z"
              />
            </svg>
          </div>
          <span
            class="ListItem__StyledSpan-sc-1vswvev-3 dreJAy"
          >
            hi
          </span>
        </li>
        <li
          class="ListItem__Item-sc-1vswvev-0 kAKwfM"
          data-test="e2e-result-value__joy"
        >
          <div
            class="ListItem__IconContainer-sc-1vswvev-1 dkYzlp"
            type="primary"
          >
            <svg
              class="Icon__StyledIcon-sc-1pnzn3g-0 ctFCqo"
              preserveAspectRatio="xMidYMid meet"
              viewBox="0 0 24 24"
            >
              <path
                d="M12 7c-2.76 0-5 2.24-5 5s2.24 5 5 5 5-2.24 5-5-2.24-5-5-5z"
              />
            </svg>
          </div>
          <span
            class="ListItem__StyledSpan-sc-1vswvev-3 dreJAy"
          >
            joy
          </span>
        </li>
        <li
          class="ListItem__Item-sc-1vswvev-0 kAKwfM"
          data-test="e2e-result-value__test"
        >
          <div
            class="ListItem__IconContainer-sc-1vswvev-1 dkYzlp"
            type="primary"
          >
            <svg
              class="Icon__StyledIcon-sc-1pnzn3g-0 ctFCqo"
              preserveAspectRatio="xMidYMid meet"
              viewBox="0 0 24 24"
            >
              <path
                d="M12 7c-2.76 0-5 2.24-5 5s2.24 5 5 5 5-2.24 5-5-2.24-5-5-5z"
              />
            </svg>
          </div>
          <span
            class="ListItem__StyledSpan-sc-1vswvev-3 dreJAy"
          >
            test
          </span>
        </li>
      </ul>
    </div>
  </div>
</div>
`;
