// Jest Snapshot v1, https://goo.gl/fbAQLP

exports[`Keyboard - snapshots Should be displayed correctly 1`] = `
<div
  class="content"
>
  <label
    class="InputField__Field-sc-4opay-0 hAGpxZ"
    for="input_keyboard_field"
  >
    <span
      class="FormLabel-sc-1927civ-1 jKbRzf"
    >
      <span
        aria-hidden="true"
        class="FormLabel__StyledAsterisk-sc-1927civ-0 iaiLbX"
      >
        * 
      </span>
      <span>
        Number
      </span>
    </span>
    <div
      class="InputField__InputContainer-sc-4opay-2 iHPdxI"
    >
      <input
        aria-required="true"
        class="InputField__Input-sc-4opay-6 dKXwhT"
        data-state="ok"
        id="input_keyboard_field"
        inputmode="tel"
        readonly=""
        type="text"
        value=""
      />
      <div
        class="InputField__FakeInput-sc-4opay-1 fiwPmT"
      />
    </div>
    <div
      aria-live="polite"
      class="FormFeedback__StyledFormFeedback-sc-1lhzkwp-0 geqxHy"
    >
      Maximum 10 numbers
    </div>
  </label>
  <div
    class="keyboard"
  >
    <div
      class="ButtonPrimitive__StyledButtonPrimitive-q2qrvj-0 hRccwF btnWrap"
      type="button"
    >
      <div
        class="ButtonPrimitiveContent__StyledButtonPrimitiveContent-g7vhys-0 wSLAv"
      >
        <div
          class="ButtonPrimitiveContentChildren__StyledButtonPrimitiveContentChildren-xn0ytv-0 joRczS"
        >
          <div
            class="btnWrapInner"
          >
            <span>
              1
            </span>
            <span />
          </div>
        </div>
      </div>
    </div>
    <div
      class="ButtonPrimitive__StyledButtonPrimitive-q2qrvj-0 hRccwF btnWrap"
      type="button"
    >
      <div
        class="ButtonPrimitiveContent__StyledButtonPrimitiveContent-g7vhys-0 wSLAv"
      >
        <div
          class="ButtonPrimitiveContentChildren__StyledButtonPrimitiveContentChildren-xn0ytv-0 joRczS"
        >
          <div
            class="btnWrapInner"
          >
            <span>
              2
            </span>
            <span>
              ABC
            </span>
          </div>
        </div>
      </div>
    </div>
    <div
      class="ButtonPrimitive__StyledButtonPrimitive-q2qrvj-0 hRccwF btnWrap"
      type="button"
    >
      <div
        class="ButtonPrimitiveContent__StyledButtonPrimitiveContent-g7vhys-0 wSLAv"
      >
        <div
          class="ButtonPrimitiveContentChildren__StyledButtonPrimitiveContentChildren-xn0ytv-0 joRczS"
        >
          <div
            class="btnWrapInner"
          >
            <span>
              3
            </span>
            <span>
              DEF
            </span>
          </div>
        </div>
      </div>
    </div>
    <div
      class="ButtonPrimitive__StyledButtonPrimitive-q2qrvj-0 hRccwF btnWrap"
      type="button"
    >
      <div
        class="ButtonPrimitiveContent__StyledButtonPrimitiveContent-g7vhys-0 wSLAv"
      >
        <div
          class="ButtonPrimitiveContentChildren__StyledButtonPrimitiveContentChildren-xn0ytv-0 joRczS"
        >
          <div
            class="btnWrapInner"
          >
            <span>
              4
            </span>
            <span>
              GHI
            </span>
          </div>
        </div>
      </div>
    </div>
    <div
      class="ButtonPrimitive__StyledButtonPrimitive-q2qrvj-0 hRccwF btnWrap"
      type="button"
    >
      <div
        class="ButtonPrimitiveContent__StyledButtonPrimitiveContent-g7vhys-0 wSLAv"
      >
        <div
          class="ButtonPrimitiveContentChildren__StyledButtonPrimitiveContentChildren-xn0ytv-0 joRczS"
        >
          <div
            class="btnWrapInner"
          >
            <span>
              5
            </span>
            <span>
              JKL
            </span>
          </div>
        </div>
      </div>
    </div>
    <div
      class="ButtonPrimitive__StyledButtonPrimitive-q2qrvj-0 hRccwF btnWrap"
      type="button"
    >
      <div
        class="ButtonPrimitiveContent__StyledButtonPrimitiveContent-g7vhys-0 wSLAv"
      >
        <div
          class="ButtonPrimitiveContentChildren__StyledButtonPrimitiveContentChildren-xn0ytv-0 joRczS"
        >
          <div
            class="btnWrapInner"
          >
            <span>
              6
            </span>
            <span>
              MNO
            </span>
          </div>
        </div>
      </div>
    </div>
    <div
      class="ButtonPrimitive__StyledButtonPrimitive-q2qrvj-0 hRccwF btnWrap"
      type="button"
    >
      <div
        class="ButtonPrimitiveContent__StyledButtonPrimitiveContent-g7vhys-0 wSLAv"
      >
        <div
          class="ButtonPrimitiveContentChildren__StyledButtonPrimitiveContentChildren-xn0ytv-0 joRczS"
        >
          <div
            class="btnWrapInner"
          >
            <span>
              7
            </span>
            <span>
              PQRS
            </span>
          </div>
        </div>
      </div>
    </div>
    <div
      class="ButtonPrimitive__StyledButtonPrimitive-q2qrvj-0 hRccwF btnWrap"
      type="button"
    >
      <div
        class="ButtonPrimitiveContent__StyledButtonPrimitiveContent-g7vhys-0 wSLAv"
      >
        <div
          class="ButtonPrimitiveContentChildren__StyledButtonPrimitiveContentChildren-xn0ytv-0 joRczS"
        >
          <div
            class="btnWrapInner"
          >
            <span>
              8
            </span>
            <span>
              TUV
            </span>
          </div>
        </div>
      </div>
    </div>
    <div
      class="ButtonPrimitive__StyledButtonPrimitive-q2qrvj-0 hRccwF btnWrap"
      type="button"
    >
      <div
        class="ButtonPrimitiveContent__StyledButtonPrimitiveContent-g7vhys-0 wSLAv"
      >
        <div
          class="ButtonPrimitiveContentChildren__StyledButtonPrimitiveContentChildren-xn0ytv-0 joRczS"
        >
          <div
            class="btnWrapInner"
          >
            <span>
              9
            </span>
            <span>
              WXYZ
            </span>
          </div>
        </div>
      </div>
    </div>
    <div
      class="ButtonPrimitive__StyledButtonPrimitive-q2qrvj-0 hRccwF btnWrap"
      type="button"
    >
      <div
        class="ButtonPrimitiveContent__StyledButtonPrimitiveContent-g7vhys-0 wSLAv"
      >
        <div
          class="ButtonPrimitiveContentChildren__StyledButtonPrimitiveContentChildren-xn0ytv-0 joRczS"
        >
          <div
            class="btnWrapInner"
          >
            <span>
              *
            </span>
          </div>
        </div>
      </div>
    </div>
    <div
      class="ButtonPrimitive__StyledButtonPrimitive-q2qrvj-0 hRccwF btnWrap"
      type="button"
    >
      <div
        class="ButtonPrimitiveContent__StyledButtonPrimitiveContent-g7vhys-0 wSLAv"
      >
        <div
          class="ButtonPrimitiveContentChildren__StyledButtonPrimitiveContentChildren-xn0ytv-0 joRczS"
        >
          <div
            class="btnWrapInner"
          >
            0
            <span />
          </div>
        </div>
      </div>
    </div>
    <div
      class="ButtonPrimitive__StyledButtonPrimitive-q2qrvj-0 hRccwF btnWrap"
      type="button"
    >
      <div
        class="ButtonPrimitiveContent__StyledButtonPrimitiveContent-g7vhys-0 wSLAv"
      >
        <div
          class="ButtonPrimitiveContentChildren__StyledButtonPrimitiveContentChildren-xn0ytv-0 joRczS"
        >
          <div
            class="btnWrapInner"
          >
            <span>
              #
            </span>
          </div>
        </div>
      </div>
    </div>
  </div>
</div>
`;
